EESchema Schematic File Version 4
EELAYER 30 0
EELAYER END
$Descr A4 11693 8268
encoding utf-8
Sheet 1 1
Title ""
Date ""
Rev ""
Comp ""
Comment1 ""
Comment2 ""
Comment3 ""
Comment4 ""
$EndDescr
$Comp
L RF_Module:ESP32-WROOM-32 U6
U 1 1 60659862
P 4950 4050
F 0 "U6" H 4950 5631 50  0000 C CNN
F 1 "ESP32-WROOM-32" H 4950 5540 50  0000 C CNN
F 2 "RF_Module:ESP32-WROOM-32" H 4950 2550 50  0001 C CNN
F 3 "https://www.espressif.com/sites/default/files/documentation/esp32-wroom-32_datasheet_en.pdf" H 4650 4100 50  0001 C CNN
	1    4950 4050
	1    0    0    -1  
$EndComp
$Comp
L Interface_Ethernet:LAN8720A U7
U 1 1 6065AD5A
P 7350 4650
F 0 "U7" H 7300 3461 50  0000 C CNN
F 1 "LAN8720A" H 7300 3370 50  0000 C CNN
F 2 "Package_DFN_QFN:QFN-24-1EP_4x4mm_P0.5mm_EP2.6x2.6mm" H 7400 3600 50  0001 L CNN
F 3 "http://ww1.microchip.com/downloads/en/DeviceDoc/8720a.pdf" H 7150 3700 50  0001 C CNN
	1    7350 4650
	1    0    0    -1  
$EndComp
$Comp
L kahiwi:RJ45-CAN J1
U 1 1 6065CC40
P 950 2050
F 0 "J1" H 893 1433 50  0000 C CNN
F 1 "RJ45-CAN" H 893 1524 50  0000 C CNN
F 2 "Connector_RJ:RJ45_OST_PJ012-8P8CX_Vertical" V 950 2075 50  0001 C CNN
F 3 "~" V 950 2075 50  0001 C CNN
	1    950  2050
	-1   0    0    -1  
$EndComp
$Comp
L kahiwi:PESD2CAN U3
U 1 1 6065DA14
P 1850 3100
F 0 "U3" H 1850 3225 50  0000 C CNN
F 1 "PESD2CAN" H 1850 3134 50  0000 C CNN
F 2 "Package_TO_SOT_SMD:SOT-23" H 1850 3100 50  0001 C CNN
F 3 "" H 1850 3100 50  0001 C CNN
	1    1850 3100
	0    1    1    0   
$EndComp
$Comp
L Interface_CAN_LIN:MCP2562-E-SN U4
U 1 1 6065F46A
P 2600 2050
F 0 "U4" H 2600 1469 50  0000 C CNN
F 1 "MCP2562-E-SN" H 2600 1560 50  0000 C CNN
F 2 "Package_SO:SOIC-8_3.9x4.9mm_P1.27mm" H 2600 1550 50  0001 C CIN
F 3 "http://ww1.microchip.com/downloads/en/DeviceDoc/25167A.pdf" H 2600 2050 50  0001 C CNN
	1    2600 2050
	-1   0    0    1   
$EndComp
$Comp
L Connector:RJ45_Amphenol_RJMG1BD3B8K1ANR J3
U 1 1 6065A70B
P 9800 4650
F 0 "J3" H 9800 5375 50  0000 C CNN
F 1 "RJ45_Amphenol_RJMG1BD3B8K1ANR" H 9800 5284 50  0000 C CNN
F 2 "Connector_RJ:RJ45_Amphenol_RJMG1BD3B8K1ANR" H 9800 5350 50  0001 C CNN
F 3 "https://www.amphenolcanada.com/ProductSearch/Drawings/AC/RJMG1BD3B8K1ANR.PDF" H 9800 5450 50  0001 C CNN
	1    9800 4650
	1    0    0    -1  
$EndComp
Wire Wire Line
	8050 4250 8400 4250
Wire Wire Line
	8400 4250 8400 4350
Wire Wire Line
	8050 4350 8250 4350
Wire Wire Line
	8250 4350 8250 4450
Wire Wire Line
	8200 4650 8200 4450
Wire Wire Line
	8200 4450 8050 4450
Wire Wire Line
	8050 4950 8350 4950
Wire Wire Line
	8350 4950 8350 4850
Wire Wire Line
	2100 1950 1750 1950
Wire Wire Line
	1450 1950 1450 1900
Wire Wire Line
	1450 1900 1350 1900
Wire Wire Line
	1350 2200 1450 2200
Wire Wire Line
	1450 2200 1450 2150
Wire Wire Line
	1450 2150 1750 2150
Wire Wire Line
	1550 2850 1550 1950
Connection ~ 1550 1950
Wire Wire Line
	1550 1950 1450 1950
Wire Wire Line
	1750 2850 1750 2150
Connection ~ 1750 2150
Wire Wire Line
	1750 2150 1900 2150
$Comp
L Regulator_Linear:LD1117S33TR_SOT223 U2
U 1 1 606C20EC
P 1650 900
F 0 "U2" H 1650 1142 50  0000 C CNN
F 1 "LD1117S33TR_SOT223" H 1650 1051 50  0000 C CNN
F 2 "Package_TO_SOT_SMD:SOT-223-3_TabPin2" H 1650 1100 50  0001 C CNN
F 3 "http://www.st.com/st-web-ui/static/active/en/resource/technical/document/datasheet/CD00000544.pdf" H 1750 650 50  0001 C CNN
	1    1650 900 
	1    0    0    -1  
$EndComp
$Comp
L power:+5V #PWR0101
U 1 1 606C4785
P 700 900
F 0 "#PWR0101" H 700 750 50  0001 C CNN
F 1 "+5V" H 715 1073 50  0000 C CNN
F 2 "" H 700 900 50  0001 C CNN
F 3 "" H 700 900 50  0001 C CNN
	1    700  900 
	1    0    0    -1  
$EndComp
$Comp
L power:+3.3V #PWR0102
U 1 1 606C5464
P 2700 900
F 0 "#PWR0102" H 2700 750 50  0001 C CNN
F 1 "+3.3V" H 2715 1073 50  0000 C CNN
F 2 "" H 2700 900 50  0001 C CNN
F 3 "" H 2700 900 50  0001 C CNN
	1    2700 900 
	1    0    0    -1  
$EndComp
$Comp
L power:GND #PWR0103
U 1 1 606C5C49
P 1650 1200
F 0 "#PWR0103" H 1650 950 50  0001 C CNN
F 1 "GND" H 1655 1027 50  0000 C CNN
F 2 "" H 1650 1200 50  0001 C CNN
F 3 "" H 1650 1200 50  0001 C CNN
	1    1650 1200
	1    0    0    -1  
$EndComp
$Comp
L Device:C C3
U 1 1 606C6207
P 2200 1050
F 0 "C3" H 2315 1096 50  0000 L CNN
F 1 "100n" H 2315 1005 50  0000 L CNN
F 2 "Capacitor_SMD:C_0603_1608Metric_Pad1.08x0.95mm_HandSolder" H 2238 900 50  0001 C CNN
F 3 "~" H 2200 1050 50  0001 C CNN
	1    2200 1050
	1    0    0    -1  
$EndComp
$Comp
L Device:C C5
U 1 1 606C6C68
P 2700 1050
F 0 "C5" H 2815 1096 50  0000 L CNN
F 1 "10u" H 2815 1005 50  0000 L CNN
F 2 "Capacitor_SMD:C_0805_2012Metric_Pad1.18x1.45mm_HandSolder" H 2738 900 50  0001 C CNN
F 3 "~" H 2700 1050 50  0001 C CNN
	1    2700 1050
	1    0    0    -1  
$EndComp
$Comp
L Device:C C2
U 1 1 606C87B8
P 1100 1050
F 0 "C2" H 1215 1096 50  0000 L CNN
F 1 "100n" H 1215 1005 50  0000 L CNN
F 2 "Capacitor_SMD:C_0603_1608Metric_Pad1.08x0.95mm_HandSolder" H 1138 900 50  0001 C CNN
F 3 "~" H 1100 1050 50  0001 C CNN
	1    1100 1050
	1    0    0    -1  
$EndComp
$Comp
L Device:C C1
U 1 1 606C8D3B
P 700 1050
F 0 "C1" H 815 1096 50  0000 L CNN
F 1 "10u" H 815 1005 50  0000 L CNN
F 2 "Capacitor_SMD:C_0805_2012Metric_Pad1.18x1.45mm_HandSolder" H 738 900 50  0001 C CNN
F 3 "~" H 700 1050 50  0001 C CNN
	1    700  1050
	1    0    0    -1  
$EndComp
Wire Wire Line
	700  900  1100 900 
Connection ~ 700  900 
Connection ~ 1100 900 
Wire Wire Line
	1100 900  1350 900 
Wire Wire Line
	1950 900  2200 900 
Connection ~ 2700 900 
Connection ~ 2200 900 
Wire Wire Line
	2200 900  2700 900 
Wire Wire Line
	2700 1200 2200 1200
Connection ~ 1100 1200
Wire Wire Line
	1100 1200 700  1200
Connection ~ 1650 1200
Wire Wire Line
	1650 1200 1100 1200
Connection ~ 2200 1200
Wire Wire Line
	2200 1200 1650 1200
$Comp
L power:GND #PWR0104
U 1 1 606CF77B
P 1350 1700
F 0 "#PWR0104" H 1350 1450 50  0001 C CNN
F 1 "GND" V 1355 1572 50  0000 R CNN
F 2 "" H 1350 1700 50  0001 C CNN
F 3 "" H 1350 1700 50  0001 C CNN
	1    1350 1700
	0    -1   -1   0   
$EndComp
$Comp
L power:+5V #PWR0105
U 1 1 606D0804
P 1350 2300
F 0 "#PWR0105" H 1350 2150 50  0001 C CNN
F 1 "+5V" V 1365 2428 50  0000 L CNN
F 2 "" H 1350 2300 50  0001 C CNN
F 3 "" H 1350 2300 50  0001 C CNN
	1    1350 2300
	0    1    1    0   
$EndComp
$Comp
L power:GND #PWR0106
U 1 1 606D1548
P 1350 2400
F 0 "#PWR0106" H 1350 2150 50  0001 C CNN
F 1 "GND" V 1355 2272 50  0000 R CNN
F 2 "" H 1350 2400 50  0001 C CNN
F 3 "" H 1350 2400 50  0001 C CNN
	1    1350 2400
	0    -1   -1   0   
$EndComp
$Comp
L power:+5V #PWR0107
U 1 1 606D3558
P 2600 2450
F 0 "#PWR0107" H 2600 2300 50  0001 C CNN
F 1 "+5V" H 2615 2623 50  0000 C CNN
F 2 "" H 2600 2450 50  0001 C CNN
F 3 "" H 2600 2450 50  0001 C CNN
	1    2600 2450
	-1   0    0    1   
$EndComp
$Comp
L power:GND #PWR0108
U 1 1 606D3D98
P 2600 1650
F 0 "#PWR0108" H 2600 1400 50  0001 C CNN
F 1 "GND" H 2605 1477 50  0000 C CNN
F 2 "" H 2600 1650 50  0001 C CNN
F 3 "" H 2600 1650 50  0001 C CNN
	1    2600 1650
	-1   0    0    1   
$EndComp
$Comp
L power:+3.3V #PWR0109
U 1 1 606D450C
P 3100 1950
F 0 "#PWR0109" H 3100 1800 50  0001 C CNN
F 1 "+3.3V" V 3115 2078 50  0000 L CNN
F 2 "" H 3100 1950 50  0001 C CNN
F 3 "" H 3100 1950 50  0001 C CNN
	1    3100 1950
	0    1    1    0   
$EndComp
Text Label 3100 2250 0    50   ~ 0
CANTX
Text Label 3100 2150 0    50   ~ 0
CANRX
$Comp
L Oscillator:XO53 X1
U 1 1 606E3C73
P 6150 6750
F 0 "X1" H 6494 6796 50  0000 L CNN
F 1 "XO53" H 6494 6705 50  0000 L CNN
F 2 "Oscillator:Oscillator_SMD_EuroQuartz_XO53-4Pin_5.0x3.2mm" H 6850 6400 50  0001 C CNN
F 3 "http://cdn-reichelt.de/documents/datenblatt/B400/XO53.pdf" H 6050 6750 50  0001 C CNN
	1    6150 6750
	1    0    0    -1  
$EndComp
$Comp
L Device:C C11
U 1 1 606E7FBB
P 5150 6750
F 0 "C11" H 5265 6796 50  0000 L CNN
F 1 "1u" H 5265 6705 50  0000 L CNN
F 2 "Capacitor_SMD:C_0805_2012Metric_Pad1.18x1.45mm_HandSolder" H 5188 6600 50  0001 C CNN
F 3 "~" H 5150 6750 50  0001 C CNN
	1    5150 6750
	1    0    0    -1  
$EndComp
$Comp
L power:+3.3V #PWR0112
U 1 1 606EBA4D
P 6150 6450
F 0 "#PWR0112" H 6150 6300 50  0001 C CNN
F 1 "+3.3V" H 6165 6623 50  0000 C CNN
F 2 "" H 6150 6450 50  0001 C CNN
F 3 "" H 6150 6450 50  0001 C CNN
	1    6150 6450
	1    0    0    -1  
$EndComp
$Comp
L power:GND #PWR0113
U 1 1 606EDA64
P 6150 7050
F 0 "#PWR0113" H 6150 6800 50  0001 C CNN
F 1 "GND" H 6155 6877 50  0000 C CNN
F 2 "" H 6150 7050 50  0001 C CNN
F 3 "" H 6150 7050 50  0001 C CNN
	1    6150 7050
	1    0    0    -1  
$EndComp
$Comp
L power:GND #PWR0114
U 1 1 606EE193
P 7350 5750
F 0 "#PWR0114" H 7350 5500 50  0001 C CNN
F 1 "GND" H 7355 5577 50  0000 C CNN
F 2 "" H 7350 5750 50  0001 C CNN
F 3 "" H 7350 5750 50  0001 C CNN
	1    7350 5750
	1    0    0    -1  
$EndComp
Wire Wire Line
	6150 6450 5150 6450
Wire Wire Line
	5150 6450 5150 6600
Connection ~ 6150 6450
Wire Wire Line
	5150 7050 5150 6900
Wire Wire Line
	5150 7050 6150 7050
Connection ~ 6150 7050
Wire Wire Line
	6450 6750 6450 5650
Wire Wire Line
	6450 5350 6550 5350
$Comp
L Device:R R3
U 1 1 606F8743
P 5600 7050
F 0 "R3" H 5670 7096 50  0000 L CNN
F 1 "10K" H 5670 7005 50  0000 L CNN
F 2 "Resistor_SMD:R_0603_1608Metric_Pad0.98x0.95mm_HandSolder" V 5530 7050 50  0001 C CNN
F 3 "~" H 5600 7050 50  0001 C CNN
	1    5600 7050
	1    0    0    -1  
$EndComp
Wire Wire Line
	5600 6900 5600 6750
Wire Wire Line
	5600 6750 5850 6750
$Comp
L power:GND #PWR0115
U 1 1 606FA070
P 5600 7200
F 0 "#PWR0115" H 5600 6950 50  0001 C CNN
F 1 "GND" H 5605 7027 50  0000 C CNN
F 2 "" H 5600 7200 50  0001 C CNN
F 3 "" H 5600 7200 50  0001 C CNN
	1    5600 7200
	1    0    0    -1  
$EndComp
Wire Wire Line
	6550 4050 5550 4050
Wire Wire Line
	6550 4250 5550 4250
Wire Wire Line
	5550 4150 6550 4150
Wire Wire Line
	6550 4350 5550 4350
Wire Wire Line
	6550 4450 5550 4450
Wire Wire Line
	5550 4550 6550 4550
Wire Wire Line
	6550 4650 5550 4650
Wire Wire Line
	5550 4750 6550 4750
Wire Wire Line
	6550 4850 5550 4850
Wire Wire Line
	5550 2850 6050 2850
Wire Wire Line
	6050 2850 6050 5150
Wire Wire Line
	6050 5150 6550 5150
Wire Wire Line
	6550 5050 6400 5050
Wire Wire Line
	6400 5050 6400 4950
Wire Wire Line
	6400 4950 5900 4950
$Comp
L Device:R R8
U 1 1 6071D317
P 8350 5600
F 0 "R8" H 8420 5646 50  0000 L CNN
F 1 "10K" H 8420 5555 50  0000 L CNN
F 2 "Resistor_SMD:R_0603_1608Metric_Pad0.98x0.95mm_HandSolder" V 8280 5600 50  0001 C CNN
F 3 "~" H 8350 5600 50  0001 C CNN
	1    8350 5600
	1    0    0    -1  
$EndComp
$Comp
L power:GND #PWR0116
U 1 1 6071DB18
P 8350 5750
F 0 "#PWR0116" H 8350 5500 50  0001 C CNN
F 1 "GND" H 8355 5577 50  0000 C CNN
F 2 "" H 8350 5750 50  0001 C CNN
F 3 "" H 8350 5750 50  0001 C CNN
	1    8350 5750
	1    0    0    -1  
$EndComp
$Comp
L Device:R R9
U 1 1 6071F31D
P 8650 5600
F 0 "R9" H 8720 5646 50  0000 L CNN
F 1 "10K" H 8720 5555 50  0000 L CNN
F 2 "Resistor_SMD:R_0603_1608Metric_Pad0.98x0.95mm_HandSolder" V 8580 5600 50  0001 C CNN
F 3 "~" H 8650 5600 50  0001 C CNN
	1    8650 5600
	1    0    0    -1  
$EndComp
$Comp
L power:GND #PWR0117
U 1 1 6071F6E0
P 8650 5750
F 0 "#PWR0117" H 8650 5500 50  0001 C CNN
F 1 "GND" H 8655 5577 50  0000 C CNN
F 2 "" H 8650 5750 50  0001 C CNN
F 3 "" H 8650 5750 50  0001 C CNN
	1    8650 5750
	1    0    0    -1  
$EndComp
$Comp
L power:GND #PWR0118
U 1 1 6071FAAD
P 8150 6250
F 0 "#PWR0118" H 8150 6000 50  0001 C CNN
F 1 "GND" H 8155 6077 50  0000 C CNN
F 2 "" H 8150 6250 50  0001 C CNN
F 3 "" H 8150 6250 50  0001 C CNN
	1    8150 6250
	1    0    0    -1  
$EndComp
$Comp
L Device:R R7
U 1 1 60721E83
P 8150 6100
F 0 "R7" H 8220 6146 50  0000 L CNN
F 1 "12K1 1%" H 8220 6055 50  0000 L CNN
F 2 "Resistor_SMD:R_0603_1608Metric_Pad0.98x0.95mm_HandSolder" V 8080 6100 50  0001 C CNN
F 3 "~" H 8150 6100 50  0001 C CNN
	1    8150 6100
	1    0    0    -1  
$EndComp
Wire Wire Line
	8200 4650 8900 4650
Wire Wire Line
	8250 4450 8900 4450
Wire Wire Line
	8400 4350 8900 4350
Wire Wire Line
	8050 4150 8900 4150
Wire Wire Line
	8900 4950 8800 4950
Wire Wire Line
	8900 5150 8900 5250
Wire Wire Line
	8050 4750 8150 4750
$Comp
L Device:C C14
U 1 1 60750FD4
P 7250 2800
F 0 "C14" H 7365 2846 50  0000 L CNN
F 1 "470p" H 7365 2755 50  0000 L CNN
F 2 "Capacitor_SMD:C_0603_1608Metric_Pad1.08x0.95mm_HandSolder" H 7288 2650 50  0001 C CNN
F 3 "~" H 7250 2800 50  0001 C CNN
	1    7250 2800
	1    0    0    -1  
$EndComp
$Comp
L Device:C C15
U 1 1 60751A77
P 7650 2800
F 0 "C15" H 7765 2846 50  0000 L CNN
F 1 "1u" H 7765 2755 50  0000 L CNN
F 2 "Capacitor_SMD:C_0603_1608Metric_Pad1.08x0.95mm_HandSolder" H 7688 2650 50  0001 C CNN
F 3 "~" H 7650 2800 50  0001 C CNN
	1    7650 2800
	1    0    0    -1  
$EndComp
Wire Wire Line
	7650 2950 7250 2950
Wire Wire Line
	7250 2950 7250 3450
Connection ~ 7250 2950
Wire Wire Line
	7250 2650 7450 2650
$Comp
L power:GND #PWR0119
U 1 1 607584E7
P 7450 2650
F 0 "#PWR0119" H 7450 2400 50  0001 C CNN
F 1 "GND" H 7455 2477 50  0000 C CNN
F 2 "" H 7450 2650 50  0001 C CNN
F 3 "" H 7450 2650 50  0001 C CNN
	1    7450 2650
	-1   0    0    1   
$EndComp
Connection ~ 7450 2650
Wire Wire Line
	7450 2650 7650 2650
$Comp
L power:+3.3V #PWR0120
U 1 1 6075955E
P 4950 2650
F 0 "#PWR0120" H 4950 2500 50  0001 C CNN
F 1 "+3.3V" H 4965 2823 50  0000 C CNN
F 2 "" H 4950 2650 50  0001 C CNN
F 3 "" H 4950 2650 50  0001 C CNN
	1    4950 2650
	1    0    0    -1  
$EndComp
$Comp
L power:+3.3V #PWR0121
U 1 1 6075A15D
P 7150 3250
F 0 "#PWR0121" H 7150 3100 50  0001 C CNN
F 1 "+3.3V" H 7165 3423 50  0000 C CNN
F 2 "" H 7150 3250 50  0001 C CNN
F 3 "" H 7150 3250 50  0001 C CNN
	1    7150 3250
	1    0    0    -1  
$EndComp
$Comp
L Device:L L1
U 1 1 6075E1C3
P 7600 3450
F 0 "L1" V 7419 3450 50  0000 C CNN
F 1 "1m" V 7510 3450 50  0000 C CNN
F 2 "Inductor_SMD:L_0805_2012Metric_Pad1.15x1.40mm_HandSolder" H 7600 3450 50  0001 C CNN
F 3 "~" H 7600 3450 50  0001 C CNN
	1    7600 3450
	0    1    1    0   
$EndComp
$Comp
L power:+3.3V #PWR0122
U 1 1 6075F7DA
P 7750 3450
F 0 "#PWR0122" H 7750 3300 50  0001 C CNN
F 1 "+3.3V" H 7765 3623 50  0000 C CNN
F 2 "" H 7750 3450 50  0001 C CNN
F 3 "" H 7750 3450 50  0001 C CNN
	1    7750 3450
	1    0    0    -1  
$EndComp
$Comp
L power:VDDA #PWR0123
U 1 1 6076489E
P 7450 3350
F 0 "#PWR0123" H 7450 3200 50  0001 C CNN
F 1 "VDDA" H 7465 3523 50  0000 C CNN
F 2 "" H 7450 3350 50  0001 C CNN
F 3 "" H 7450 3350 50  0001 C CNN
	1    7450 3350
	1    0    0    -1  
$EndComp
Wire Wire Line
	7450 3350 7450 3450
Wire Wire Line
	7450 3450 7350 3450
Connection ~ 7450 3450
$Comp
L Device:R R6
U 1 1 6078554D
P 5900 5100
F 0 "R6" H 5970 5146 50  0000 L CNN
F 1 "10K" H 5970 5055 50  0000 L CNN
F 2 "Resistor_SMD:R_0603_1608Metric_Pad0.98x0.95mm_HandSolder" V 5830 5100 50  0001 C CNN
F 3 "~" H 5900 5100 50  0001 C CNN
	1    5900 5100
	1    0    0    -1  
$EndComp
$Comp
L power:GND #PWR0124
U 1 1 60785E00
P 5900 5250
F 0 "#PWR0124" H 5900 5000 50  0001 C CNN
F 1 "GND" H 5905 5077 50  0000 C CNN
F 2 "" H 5900 5250 50  0001 C CNN
F 3 "" H 5900 5250 50  0001 C CNN
	1    5900 5250
	1    0    0    -1  
$EndComp
Connection ~ 5900 4950
Wire Wire Line
	5550 4950 5900 4950
Wire Wire Line
	5600 6750 5600 5150
Wire Wire Line
	5600 5150 5550 5150
Connection ~ 5600 6750
Text Label 4050 4350 2    50   ~ 0
CANRX
Text Label 4050 4250 2    50   ~ 0
CANTX
$Comp
L power:GND #PWR0125
U 1 1 6079484C
P 4950 5450
F 0 "#PWR0125" H 4950 5200 50  0001 C CNN
F 1 "GND" H 4955 5277 50  0000 C CNN
F 2 "" H 4950 5450 50  0001 C CNN
F 3 "" H 4950 5450 50  0001 C CNN
	1    4950 5450
	1    0    0    -1  
$EndComp
$Comp
L power:GND #PWR0126
U 1 1 60799419
P 9800 5350
F 0 "#PWR0126" H 9800 5100 50  0001 C CNN
F 1 "GND" H 9805 5177 50  0000 C CNN
F 2 "" H 9800 5350 50  0001 C CNN
F 3 "" H 9800 5350 50  0001 C CNN
	1    9800 5350
	1    0    0    -1  
$EndComp
$Comp
L power:GND #PWR0127
U 1 1 6079A618
P 10700 5050
F 0 "#PWR0127" H 10700 4800 50  0001 C CNN
F 1 "GND" H 10705 4877 50  0000 C CNN
F 2 "" H 10700 5050 50  0001 C CNN
F 3 "" H 10700 5050 50  0001 C CNN
	1    10700 5050
	1    0    0    -1  
$EndComp
Wire Wire Line
	8050 5050 8350 5050
Wire Wire Line
	8350 4850 8650 4850
Wire Wire Line
	8150 4750 8150 5950
Wire Wire Line
	8350 5450 8350 5050
Connection ~ 8350 5050
Wire Wire Line
	8350 5050 8900 5050
Wire Wire Line
	8650 5450 8650 4850
Connection ~ 8650 4850
Wire Wire Line
	8650 4850 8900 4850
Wire Wire Line
	8900 4250 8750 4250
Wire Wire Line
	8750 4250 8750 4550
Wire Wire Line
	8750 4550 8900 4550
Wire Wire Line
	8750 4250 8750 3850
Connection ~ 8750 4250
Wire Wire Line
	8750 4550 8750 5500
Wire Wire Line
	8750 5500 8950 5500
Wire Wire Line
	8950 5500 8950 5800
Connection ~ 8750 4550
$Comp
L Device:C C18
U 1 1 607BF108
P 8950 5950
F 0 "C18" H 9065 5996 50  0000 L CNN
F 1 "20n" H 9065 5905 50  0000 L CNN
F 2 "Capacitor_SMD:C_0603_1608Metric_Pad1.08x0.95mm_HandSolder" H 8988 5800 50  0001 C CNN
F 3 "~" H 8950 5950 50  0001 C CNN
	1    8950 5950
	1    0    0    -1  
$EndComp
$Comp
L power:GND #PWR0128
U 1 1 607C00AB
P 8950 6100
F 0 "#PWR0128" H 8950 5850 50  0001 C CNN
F 1 "GND" H 8955 5927 50  0000 C CNN
F 2 "" H 8950 6100 50  0001 C CNN
F 3 "" H 8950 6100 50  0001 C CNN
	1    8950 6100
	1    0    0    -1  
$EndComp
$Comp
L power:VDDA #PWR0129
U 1 1 607C0DDF
P 8750 3850
F 0 "#PWR0129" H 8750 3700 50  0001 C CNN
F 1 "VDDA" H 8765 4023 50  0000 C CNN
F 2 "" H 8750 3850 50  0001 C CNN
F 3 "" H 8750 3850 50  0001 C CNN
	1    8750 3850
	1    0    0    -1  
$EndComp
$Comp
L Device:R R10
U 1 1 607C6129
P 9250 5600
F 0 "R10" H 9320 5646 50  0000 L CNN
F 1 "1K" H 9320 5555 50  0000 L CNN
F 2 "Resistor_SMD:R_0603_1608Metric_Pad0.98x0.95mm_HandSolder" V 9180 5600 50  0001 C CNN
F 3 "~" H 9250 5600 50  0001 C CNN
	1    9250 5600
	1    0    0    -1  
$EndComp
$Comp
L Device:R R11
U 1 1 607C6881
P 9500 5600
F 0 "R11" H 9570 5646 50  0000 L CNN
F 1 "1K" H 9570 5555 50  0000 L CNN
F 2 "Resistor_SMD:R_0603_1608Metric_Pad0.98x0.95mm_HandSolder" V 9430 5600 50  0001 C CNN
F 3 "~" H 9500 5600 50  0001 C CNN
	1    9500 5600
	1    0    0    -1  
$EndComp
Wire Wire Line
	8900 5250 9500 5250
Wire Wire Line
	9500 5250 9500 5450
Wire Wire Line
	9250 5450 8800 5450
Wire Wire Line
	8800 4950 8800 5450
$Comp
L power:GND #PWR0130
U 1 1 607CAF83
P 9500 5750
F 0 "#PWR0130" H 9500 5500 50  0001 C CNN
F 1 "GND" H 9505 5577 50  0000 C CNN
F 2 "" H 9500 5750 50  0001 C CNN
F 3 "" H 9500 5750 50  0001 C CNN
	1    9500 5750
	1    0    0    -1  
$EndComp
Wire Wire Line
	9500 5750 9250 5750
Connection ~ 9500 5750
$Comp
L power:+3.3V #PWR0131
U 1 1 607E2452
P 3800 2550
F 0 "#PWR0131" H 3800 2400 50  0001 C CNN
F 1 "+3.3V" V 3815 2678 50  0000 L CNN
F 2 "" H 3800 2550 50  0001 C CNN
F 3 "" H 3800 2550 50  0001 C CNN
	1    3800 2550
	1    0    0    -1  
$EndComp
$Comp
L Device:C C9
U 1 1 607E6601
P 3500 1050
F 0 "C9" H 3615 1096 50  0000 L CNN
F 1 "100n" H 3615 1005 50  0000 L CNN
F 2 "Capacitor_SMD:C_0603_1608Metric_Pad1.08x0.95mm_HandSolder" H 3538 900 50  0001 C CNN
F 3 "~" H 3500 1050 50  0001 C CNN
	1    3500 1050
	1    0    0    -1  
$EndComp
$Comp
L power:+3.3V #PWR0132
U 1 1 607E74A5
P 3500 900
F 0 "#PWR0132" H 3500 750 50  0001 C CNN
F 1 "+3.3V" H 3515 1073 50  0000 C CNN
F 2 "" H 3500 900 50  0001 C CNN
F 3 "" H 3500 900 50  0001 C CNN
	1    3500 900 
	1    0    0    -1  
$EndComp
$Comp
L power:GND #PWR0133
U 1 1 607EB3AD
P 3500 1200
F 0 "#PWR0133" H 3500 950 50  0001 C CNN
F 1 "GND" H 3505 1027 50  0000 C CNN
F 2 "" H 3500 1200 50  0001 C CNN
F 3 "" H 3500 1200 50  0001 C CNN
	1    3500 1200
	1    0    0    -1  
$EndComp
$Comp
L Device:C C13
U 1 1 607EE52F
P 4750 6000
F 0 "C13" H 4865 6046 50  0000 L CNN
F 1 "100n" H 4865 5955 50  0000 L CNN
F 2 "Capacitor_SMD:C_0603_1608Metric_Pad1.08x0.95mm_HandSolder" H 4788 5850 50  0001 C CNN
F 3 "~" H 4750 6000 50  0001 C CNN
	1    4750 6000
	1    0    0    -1  
$EndComp
$Comp
L Device:C C12
U 1 1 607EF243
P 4500 6000
F 0 "C12" H 4615 6046 50  0000 L CNN
F 1 "1n" H 4615 5955 50  0000 L CNN
F 2 "Capacitor_SMD:C_0603_1608Metric_Pad1.08x0.95mm_HandSolder" H 4538 5850 50  0001 C CNN
F 3 "~" H 4500 6000 50  0001 C CNN
	1    4500 6000
	1    0    0    -1  
$EndComp
Wire Wire Line
	4500 6150 4750 6150
$Comp
L power:+3.3V #PWR0134
U 1 1 607F3AC4
P 4500 5850
F 0 "#PWR0134" H 4500 5700 50  0001 C CNN
F 1 "+3.3V" H 4515 6023 50  0000 C CNN
F 2 "" H 4500 5850 50  0001 C CNN
F 3 "" H 4500 5850 50  0001 C CNN
	1    4500 5850
	1    0    0    -1  
$EndComp
$Comp
L power:GND #PWR0135
U 1 1 607F68A6
P 4500 6150
F 0 "#PWR0135" H 4500 5900 50  0001 C CNN
F 1 "GND" H 4505 5977 50  0000 C CNN
F 2 "" H 4500 6150 50  0001 C CNN
F 3 "" H 4500 6150 50  0001 C CNN
	1    4500 6150
	1    0    0    -1  
$EndComp
Connection ~ 4500 6150
Connection ~ 4500 5850
Wire Wire Line
	4500 5850 4750 5850
$Comp
L Device:C C17
U 1 1 607FF582
P 6600 3150
F 0 "C17" H 6715 3196 50  0000 L CNN
F 1 "100n" H 6715 3105 50  0000 L CNN
F 2 "Capacitor_SMD:C_0603_1608Metric_Pad1.08x0.95mm_HandSolder" H 6638 3000 50  0001 C CNN
F 3 "~" H 6600 3150 50  0001 C CNN
	1    6600 3150
	1    0    0    -1  
$EndComp
$Comp
L Device:C C16
U 1 1 607FF8BE
P 6350 3150
F 0 "C16" H 6465 3196 50  0000 L CNN
F 1 "1n" H 6465 3105 50  0000 L CNN
F 2 "Capacitor_SMD:C_0603_1608Metric_Pad1.08x0.95mm_HandSolder" H 6388 3000 50  0001 C CNN
F 3 "~" H 6350 3150 50  0001 C CNN
	1    6350 3150
	1    0    0    -1  
$EndComp
Wire Wire Line
	6350 3300 6600 3300
$Comp
L power:GND #PWR0136
U 1 1 607FF8D3
P 6350 3300
F 0 "#PWR0136" H 6350 3050 50  0001 C CNN
F 1 "GND" H 6355 3127 50  0000 C CNN
F 2 "" H 6350 3300 50  0001 C CNN
F 3 "" H 6350 3300 50  0001 C CNN
	1    6350 3300
	1    0    0    -1  
$EndComp
Connection ~ 6350 3300
Wire Wire Line
	6350 3000 6600 3000
$Comp
L power:VDDA #PWR0137
U 1 1 60806540
P 6350 2800
F 0 "#PWR0137" H 6350 2650 50  0001 C CNN
F 1 "VDDA" H 6365 2973 50  0000 C CNN
F 2 "" H 6350 2800 50  0001 C CNN
F 3 "" H 6350 2800 50  0001 C CNN
	1    6350 2800
	1    0    0    -1  
$EndComp
Connection ~ 6350 3000
$Comp
L Device:Ferrite_Bead_Small FB2
U 1 1 60809843
P 6350 2900
F 0 "FB2" H 6450 2946 50  0000 L CNN
F 1 "Ferrite_Bead_Small" H 6450 2855 50  0000 L CNN
F 2 "Capacitor_SMD:C_0805_2012Metric_Pad1.18x1.45mm_HandSolder" V 6280 2900 50  0001 C CNN
F 3 "~" H 6350 2900 50  0001 C CNN
	1    6350 2900
	1    0    0    -1  
$EndComp
$Comp
L Device:Ferrite_Bead_Small FB1
U 1 1 6082645B
P 7150 3350
F 0 "FB1" H 7250 3396 50  0000 L CNN
F 1 "Ferrite_Bead_Small" H 7250 3305 50  0000 L CNN
F 2 "Capacitor_SMD:C_0805_2012Metric_Pad1.18x1.45mm_HandSolder" V 7080 3350 50  0001 C CNN
F 3 "~" H 7150 3350 50  0001 C CNN
	1    7150 3350
	1    0    0    -1  
$EndComp
$Comp
L MCU_ST_STM32F1:STM32F103C8Tx U5
U 1 1 60A30EB6
P 3000 5250
F 0 "U5" H 2950 3661 50  0000 C CNN
F 1 "STM32F103C8Tx" H 2950 3570 50  0000 C CNN
F 2 "Package_QFP:LQFP-48_7x7mm_P0.5mm" H 2400 3850 50  0001 R CNN
F 3 "http://www.st.com/st-web-ui/static/active/en/resource/technical/document/datasheet/CD00161566.pdf" H 3000 5250 50  0001 C CNN
	1    3000 5250
	1    0    0    -1  
$EndComp
$Comp
L power:GND #PWR0138
U 1 1 60A33368
P 2300 4150
F 0 "#PWR0138" H 2300 3900 50  0001 C CNN
F 1 "GND" H 2305 3977 50  0000 C CNN
F 2 "" H 2300 4150 50  0001 C CNN
F 3 "" H 2300 4150 50  0001 C CNN
	1    2300 4150
	0    1    1    0   
$EndComp
$Comp
L power:GND #PWR0139
U 1 1 60A347BB
P 3100 6750
F 0 "#PWR0139" H 3100 6500 50  0001 C CNN
F 1 "GND" H 3105 6577 50  0000 C CNN
F 2 "" H 3100 6750 50  0001 C CNN
F 3 "" H 3100 6750 50  0001 C CNN
	1    3100 6750
	1    0    0    -1  
$EndComp
Wire Wire Line
	3100 6750 3000 6750
Connection ~ 3100 6750
Connection ~ 2900 6750
Wire Wire Line
	2900 6750 2800 6750
Connection ~ 3000 6750
Wire Wire Line
	3000 6750 2900 6750
$Comp
L power:+3.3V #PWR0140
U 1 1 60A3803A
P 3200 3750
F 0 "#PWR0140" H 3200 3600 50  0001 C CNN
F 1 "+3.3V" H 3215 3923 50  0000 C CNN
F 2 "" H 3200 3750 50  0001 C CNN
F 3 "" H 3200 3750 50  0001 C CNN
	1    3200 3750
	1    0    0    -1  
$EndComp
Wire Wire Line
	3200 3750 3100 3750
Connection ~ 3200 3750
Connection ~ 2900 3750
Wire Wire Line
	2900 3750 2800 3750
Connection ~ 3000 3750
Wire Wire Line
	3000 3750 2900 3750
Connection ~ 3100 3750
Wire Wire Line
	3100 3750 3000 3750
$Comp
L Device:C C4
U 1 1 60A447A1
P 1700 4100
F 0 "C4" H 1815 4146 50  0000 L CNN
F 1 "100n" H 1815 4055 50  0000 L CNN
F 2 "Capacitor_SMD:C_0603_1608Metric_Pad1.08x0.95mm_HandSolder" H 1738 3950 50  0001 C CNN
F 3 "~" H 1700 4100 50  0001 C CNN
	1    1700 4100
	1    0    0    -1  
$EndComp
$Comp
L Device:R R1
U 1 1 60A4E234
P 1700 3800
F 0 "R1" H 1770 3846 50  0000 L CNN
F 1 "10K" H 1770 3755 50  0000 L CNN
F 2 "Resistor_SMD:R_0603_1608Metric_Pad0.98x0.95mm_HandSolder" V 1630 3800 50  0001 C CNN
F 3 "~" H 1700 3800 50  0001 C CNN
	1    1700 3800
	1    0    0    -1  
$EndComp
Wire Wire Line
	2300 3950 1700 3950
Connection ~ 1700 3950
$Comp
L power:+3.3V #PWR0141
U 1 1 60A5C5E2
P 1700 3650
F 0 "#PWR0141" H 1700 3500 50  0001 C CNN
F 1 "+3.3V" H 1715 3823 50  0000 C CNN
F 2 "" H 1700 3650 50  0001 C CNN
F 3 "" H 1700 3650 50  0001 C CNN
	1    1700 3650
	1    0    0    -1  
$EndComp
$Comp
L power:GND #PWR0142
U 1 1 60A5DCEC
P 1700 4250
F 0 "#PWR0142" H 1700 4000 50  0001 C CNN
F 1 "GND" H 1705 4077 50  0000 C CNN
F 2 "" H 1700 4250 50  0001 C CNN
F 3 "" H 1700 4250 50  0001 C CNN
	1    1700 4250
	1    0    0    -1  
$EndComp
$Comp
L kahiwi:wuerthDebug U1
U 1 1 60A63086
P 850 4500
F 0 "U1" H 622 4154 50  0000 R CNN
F 1 "wuerthDebug" H 622 4245 50  0000 R CNN
F 2 "kahiwi:wuerthDebug" H 850 4500 50  0001 C CNN
F 3 "" H 850 4500 50  0001 C CNN
	1    850  4500
	1    0    0    1   
$EndComp
Wire Wire Line
	1100 4050 1450 4050
Wire Wire Line
	1450 3950 1700 3950
Connection ~ 1700 4250
Text GLabel 3600 6350 2    50   BiDi ~ 0
SWDIO
Text GLabel 3600 6450 2    50   Input ~ 0
SWCLK
Text GLabel 1100 4150 2    50   BiDi ~ 0
SWDIO
Text GLabel 1100 4350 2    50   Output ~ 0
SWCLK
Text Label 3600 6150 0    50   ~ 0
CANRX
Text Label 3600 6250 0    50   ~ 0
CANTX
$Comp
L Device:R R4
U 1 1 60A81E19
P 4200 4350
F 0 "R4" H 4270 4396 50  0000 L CNN
F 1 "0R" H 4270 4305 50  0000 L CNN
F 2 "Resistor_SMD:R_0603_1608Metric_Pad0.98x0.95mm_HandSolder" V 4130 4350 50  0001 C CNN
F 3 "~" H 4200 4350 50  0001 C CNN
	1    4200 4350
	0    1    1    0   
$EndComp
$Comp
L Device:R R5
U 1 1 60A895EB
P 4200 4250
F 0 "R5" H 4270 4296 50  0000 L CNN
F 1 "0R" H 4270 4205 50  0000 L CNN
F 2 "Resistor_SMD:R_0603_1608Metric_Pad0.98x0.95mm_HandSolder" V 4130 4250 50  0001 C CNN
F 3 "~" H 4200 4250 50  0001 C CNN
	1    4200 4250
	0    1    1    0   
$EndComp
$Comp
L Device:C C8
U 1 1 60A9467A
P 1350 5850
F 0 "C8" H 1465 5896 50  0000 L CNN
F 1 "100n" H 1465 5805 50  0000 L CNN
F 2 "Capacitor_SMD:C_0603_1608Metric_Pad1.08x0.95mm_HandSolder" H 1388 5700 50  0001 C CNN
F 3 "~" H 1350 5850 50  0001 C CNN
	1    1350 5850
	1    0    0    -1  
$EndComp
$Comp
L Device:C C7
U 1 1 60A94AF0
P 1100 5850
F 0 "C7" H 1215 5896 50  0000 L CNN
F 1 "100n" H 1215 5805 50  0000 L CNN
F 2 "Capacitor_SMD:C_0603_1608Metric_Pad1.08x0.95mm_HandSolder" H 1138 5700 50  0001 C CNN
F 3 "~" H 1100 5850 50  0001 C CNN
	1    1100 5850
	1    0    0    -1  
$EndComp
Wire Wire Line
	1100 6000 1350 6000
$Comp
L power:+3.3V #PWR0143
U 1 1 60A94AFB
P 1100 5700
F 0 "#PWR0143" H 1100 5550 50  0001 C CNN
F 1 "+3.3V" H 1115 5873 50  0000 C CNN
F 2 "" H 1100 5700 50  0001 C CNN
F 3 "" H 1100 5700 50  0001 C CNN
	1    1100 5700
	1    0    0    -1  
$EndComp
$Comp
L power:GND #PWR0144
U 1 1 60A94B05
P 1100 6000
F 0 "#PWR0144" H 1100 5750 50  0001 C CNN
F 1 "GND" H 1105 5827 50  0000 C CNN
F 2 "" H 1100 6000 50  0001 C CNN
F 3 "" H 1100 6000 50  0001 C CNN
	1    1100 6000
	1    0    0    -1  
$EndComp
Connection ~ 1100 6000
Connection ~ 1100 5700
Wire Wire Line
	1100 5700 1350 5700
$Comp
L Device:C C10
U 1 1 60A9FFFC
P 1650 5850
F 0 "C10" H 1765 5896 50  0000 L CNN
F 1 "100n" H 1765 5805 50  0000 L CNN
F 2 "Capacitor_SMD:C_0603_1608Metric_Pad1.08x0.95mm_HandSolder" H 1688 5700 50  0001 C CNN
F 3 "~" H 1650 5850 50  0001 C CNN
	1    1650 5850
	1    0    0    -1  
$EndComp
$Comp
L Device:C C6
U 1 1 60AA07A3
P 800 5850
F 0 "C6" H 915 5896 50  0000 L CNN
F 1 "100n" H 915 5805 50  0000 L CNN
F 2 "Capacitor_SMD:C_0603_1608Metric_Pad1.08x0.95mm_HandSolder" H 838 5700 50  0001 C CNN
F 3 "~" H 800 5850 50  0001 C CNN
	1    800  5850
	1    0    0    -1  
$EndComp
Wire Wire Line
	800  5700 1100 5700
Wire Wire Line
	1650 5700 1350 5700
Connection ~ 1350 5700
Wire Wire Line
	800  6000 1100 6000
Connection ~ 1350 6000
Wire Wire Line
	1350 6000 1650 6000
Text Label 5550 3950 0    50   ~ 0
MISO
Text Label 5550 3850 0    50   ~ 0
MOSI
Text Label 5550 3250 0    50   ~ 0
SCK
Text Label 2300 5550 2    50   ~ 0
MOSI
Text Label 2300 5450 2    50   ~ 0
MISO
Text Label 2300 5350 2    50   ~ 0
SCK
Text Label 5550 3350 0    50   ~ 0
SS
Text Label 1850 5250 2    50   ~ 0
SS
$Comp
L Device:R R2
U 1 1 60B2227E
P 1900 5100
F 0 "R2" H 1970 5146 50  0000 L CNN
F 1 "10K" H 1970 5055 50  0000 L CNN
F 2 "Resistor_SMD:R_0603_1608Metric_Pad0.98x0.95mm_HandSolder" V 1830 5100 50  0001 C CNN
F 3 "~" H 1900 5100 50  0001 C CNN
	1    1900 5100
	1    0    0    -1  
$EndComp
$Comp
L power:+3.3V #PWR0145
U 1 1 60B22AE8
P 1900 4950
F 0 "#PWR0145" H 1900 4800 50  0001 C CNN
F 1 "+3.3V" H 1915 5123 50  0000 C CNN
F 2 "" H 1900 4950 50  0001 C CNN
F 3 "" H 1900 4950 50  0001 C CNN
	1    1900 4950
	1    0    0    -1  
$EndComp
Wire Wire Line
	1850 5250 1900 5250
Connection ~ 1900 5250
Wire Wire Line
	1900 5250 2300 5250
Text Label 5550 5050 0    50   ~ 0
RESET
Text Label 2000 3950 0    50   ~ 0
RESET
$Comp
L Connector:Screw_Terminal_01x04 J4
U 1 1 60B51F5F
P 800 3150
F 0 "J4" H 718 2725 50  0000 C CNN
F 1 "Screw_Terminal_01x04" H 718 2816 50  0000 C CNN
F 2 "TerminalBlock_Phoenix:TerminalBlock_Phoenix_PT-1,5-4-3.5-H_1x04_P3.50mm_Horizontal" H 800 3150 50  0001 C CNN
F 3 "~" H 800 3150 50  0001 C CNN
	1    800  3150
	-1   0    0    1   
$EndComp
$Comp
L power:+5V #PWR0146
U 1 1 60B52AFB
P 1000 2950
F 0 "#PWR0146" H 1000 2800 50  0001 C CNN
F 1 "+5V" V 1015 3078 50  0000 L CNN
F 2 "" H 1000 2950 50  0001 C CNN
F 3 "" H 1000 2950 50  0001 C CNN
	1    1000 2950
	0    1    1    0   
$EndComp
$Comp
L power:+12V #PWR0147
U 1 1 60B536FC
P 1000 3250
F 0 "#PWR0147" H 1000 3100 50  0001 C CNN
F 1 "+12V" V 1015 3378 50  0000 L CNN
F 2 "" H 1000 3250 50  0001 C CNN
F 3 "" H 1000 3250 50  0001 C CNN
	1    1000 3250
	0    1    1    0   
$EndComp
$Comp
L power:+12V #PWR0148
U 1 1 60B53D3B
P 1350 1800
F 0 "#PWR0148" H 1350 1650 50  0001 C CNN
F 1 "+12V" V 1365 1928 50  0000 L CNN
F 2 "" H 1350 1800 50  0001 C CNN
F 3 "" H 1350 1800 50  0001 C CNN
	1    1350 1800
	0    1    1    0   
$EndComp
$Comp
L power:GND #PWR0149
U 1 1 60B5449C
P 1000 3150
F 0 "#PWR0149" H 1000 2900 50  0001 C CNN
F 1 "GND" V 1005 3022 50  0000 R CNN
F 2 "" H 1000 3150 50  0001 C CNN
F 3 "" H 1000 3150 50  0001 C CNN
	1    1000 3150
	0    -1   -1   0   
$EndComp
$Comp
L power:GND #PWR0150
U 1 1 60B54A2D
P 1000 3050
F 0 "#PWR0150" H 1000 2800 50  0001 C CNN
F 1 "GND" V 1005 2922 50  0000 R CNN
F 2 "" H 1000 3050 50  0001 C CNN
F 3 "" H 1000 3050 50  0001 C CNN
	1    1000 3050
	0    -1   -1   0   
$EndComp
$Comp
L Device:C C19
U 1 1 60BC8134
P 3100 1050
F 0 "C19" H 3215 1096 50  0000 L CNN
F 1 "100n" H 3215 1005 50  0000 L CNN
F 2 "Capacitor_SMD:C_0603_1608Metric_Pad1.08x0.95mm_HandSolder" H 3138 900 50  0001 C CNN
F 3 "~" H 3100 1050 50  0001 C CNN
	1    3100 1050
	1    0    0    -1  
$EndComp
$Comp
L power:+5V #PWR0151
U 1 1 60BC86F8
P 3100 900
F 0 "#PWR0151" H 3100 750 50  0001 C CNN
F 1 "+5V" H 3115 1073 50  0000 C CNN
F 2 "" H 3100 900 50  0001 C CNN
F 3 "" H 3100 900 50  0001 C CNN
	1    3100 900 
	1    0    0    -1  
$EndComp
$Comp
L power:GND #PWR0152
U 1 1 60BC8F4F
P 3100 1200
F 0 "#PWR0152" H 3100 950 50  0001 C CNN
F 1 "GND" H 3105 1027 50  0000 C CNN
F 2 "" H 3100 1200 50  0001 C CNN
F 3 "" H 3100 1200 50  0001 C CNN
	1    3100 1200
	1    0    0    -1  
$EndComp
Wire Wire Line
	1350 2000 1450 2000
Wire Wire Line
	1450 2000 1450 1950
Connection ~ 1450 1950
Wire Wire Line
	1350 2100 1450 2100
Wire Wire Line
	1450 2100 1450 2150
Connection ~ 1450 2150
$Comp
L Device:R R12
U 1 1 60BECEF9
P 1900 2000
F 0 "R12" H 1970 2046 50  0000 L CNN
F 1 "R" H 1970 1955 50  0000 L CNN
F 2 "Resistor_SMD:R_0603_1608Metric_Pad0.98x0.95mm_HandSolder" V 1830 2000 50  0001 C CNN
F 3 "~" H 1900 2000 50  0001 C CNN
	1    1900 2000
	1    0    0    -1  
$EndComp
Connection ~ 1900 2150
Wire Wire Line
	1900 2150 2100 2150
Wire Wire Line
	1900 1850 1750 1850
Wire Wire Line
	1750 1850 1750 1950
Connection ~ 1750 1950
Wire Wire Line
	1750 1950 1550 1950
$Comp
L power:GND #PWR0153
U 1 1 60C47E08
P 3100 1850
F 0 "#PWR0153" H 3100 1600 50  0001 C CNN
F 1 "GND" H 3105 1677 50  0000 C CNN
F 2 "" H 3100 1850 50  0001 C CNN
F 3 "" H 3100 1850 50  0001 C CNN
	1    3100 1850
	0    -1   -1   0   
$EndComp
$Comp
L Mechanical:MountingHole H1
U 1 1 60C7234E
P 750 7600
F 0 "H1" H 850 7646 50  0000 L CNN
F 1 "MountingHole" H 850 7555 50  0000 L CNN
F 2 "MountingHole:MountingHole_3.2mm_M3" H 750 7600 50  0001 C CNN
F 3 "~" H 750 7600 50  0001 C CNN
	1    750  7600
	1    0    0    -1  
$EndComp
$Comp
L Mechanical:MountingHole H2
U 1 1 60C74DF8
P 1050 7600
F 0 "H2" H 1150 7646 50  0000 L CNN
F 1 "MountingHole" H 1150 7555 50  0000 L CNN
F 2 "MountingHole:MountingHole_3.2mm_M3" H 1050 7600 50  0001 C CNN
F 3 "~" H 1050 7600 50  0001 C CNN
	1    1050 7600
	1    0    0    -1  
$EndComp
$Comp
L Mechanical:MountingHole H3
U 1 1 60C7535E
P 1350 7600
F 0 "H3" H 1450 7646 50  0000 L CNN
F 1 "MountingHole" H 1450 7555 50  0000 L CNN
F 2 "MountingHole:MountingHole_3.2mm_M3" H 1350 7600 50  0001 C CNN
F 3 "~" H 1350 7600 50  0001 C CNN
	1    1350 7600
	1    0    0    -1  
$EndComp
$Comp
L Mechanical:MountingHole H4
U 1 1 60C758BC
P 1600 7600
F 0 "H4" H 1700 7646 50  0000 L CNN
F 1 "MountingHole" H 1700 7555 50  0000 L CNN
F 2 "MountingHole:MountingHole_3.2mm_M3" H 1600 7600 50  0001 C CNN
F 3 "~" H 1600 7600 50  0001 C CNN
	1    1600 7600
	1    0    0    -1  
$EndComp
$Comp
L power:GND #PWR0111
U 1 1 606D8E98
P 5850 1450
F 0 "#PWR0111" H 5850 1200 50  0001 C CNN
F 1 "GND" V 5855 1322 50  0000 R CNN
F 2 "" H 5850 1450 50  0001 C CNN
F 3 "" H 5850 1450 50  0001 C CNN
	1    5850 1450
	0    -1   -1   0   
$EndComp
$Comp
L power:+3.3V #PWR0110
U 1 1 606D8663
P 5850 1250
F 0 "#PWR0110" H 5850 1100 50  0001 C CNN
F 1 "+3.3V" V 5865 1378 50  0000 L CNN
F 2 "" H 5850 1250 50  0001 C CNN
F 3 "" H 5850 1250 50  0001 C CNN
	1    5850 1250
	0    1    1    0   
$EndComp
$Comp
L Connector:Conn_01x07_Male J2
U 1 1 6067D5D4
P 5650 1250
F 0 "J2" H 5758 1631 50  0000 C CNN
F 1 "Conn_01x07_Male" H 5758 1540 50  0000 C CNN
F 2 "Connector_PinHeader_2.54mm:PinHeader_1x07_P2.54mm_Vertical" H 5650 1250 50  0001 C CNN
F 3 "~" H 5650 1250 50  0001 C CNN
	1    5650 1250
	1    0    0    -1  
$EndComp
$Comp
L Transistor_BJT:BC847 Q1
U 1 1 60E53FFB
P 6900 1250
F 0 "Q1" H 7091 1296 50  0000 L CNN
F 1 "BC847" H 7091 1205 50  0000 L CNN
F 2 "Package_TO_SOT_SMD:SOT-23" H 7100 1175 50  0001 L CIN
F 3 "https://www.onsemi.com/pub/Collateral/BC848-D.pdf" H 6900 1250 50  0001 L CNN
	1    6900 1250
	1    0    0    -1  
$EndComp
Text Label 5850 1150 0    50   ~ 0
TXD
Text Label 5850 1050 0    50   ~ 0
RXD
Text Label 5850 950  0    50   ~ 0
DTR
Text Label 5850 1550 0    50   ~ 0
RTS
$Comp
L Device:R R14
U 1 1 60E6DA49
P 6550 1250
F 0 "R14" H 6620 1296 50  0000 L CNN
F 1 "10K" H 6620 1205 50  0000 L CNN
F 2 "Resistor_SMD:R_0603_1608Metric_Pad0.98x0.95mm_HandSolder" V 6480 1250 50  0001 C CNN
F 3 "~" H 6550 1250 50  0001 C CNN
	1    6550 1250
	0    1    1    0   
$EndComp
$Comp
L Device:R R15
U 1 1 60E6EE03
P 6550 1900
F 0 "R15" H 6620 1946 50  0000 L CNN
F 1 "10K" H 6620 1855 50  0000 L CNN
F 2 "Resistor_SMD:R_0603_1608Metric_Pad0.98x0.95mm_HandSolder" V 6480 1900 50  0001 C CNN
F 3 "~" H 6550 1900 50  0001 C CNN
	1    6550 1900
	0    1    1    0   
$EndComp
Text Label 7000 1700 0    50   ~ 0
DTR
Text Label 6400 1250 2    50   ~ 0
DTR
Text Label 7000 1450 0    50   ~ 0
RTS
Text Label 6400 1900 2    50   ~ 0
RTS
Text Label 7000 1050 0    50   ~ 0
EN
Text Label 7000 2100 0    50   ~ 0
BOOT0
Text Label 5650 2850 0    50   ~ 0
BOOT0
$Comp
L Device:R R13
U 1 1 60EA18DA
P 3800 2700
F 0 "R13" H 3870 2746 50  0000 L CNN
F 1 "10K" H 3870 2655 50  0000 L CNN
F 2 "Resistor_SMD:R_0603_1608Metric_Pad0.98x0.95mm_HandSolder" V 3730 2700 50  0001 C CNN
F 3 "~" H 3800 2700 50  0001 C CNN
	1    3800 2700
	1    0    0    -1  
$EndComp
$Comp
L Device:C C20
U 1 1 60EA6470
P 3800 3000
F 0 "C20" H 3915 3046 50  0000 L CNN
F 1 "1u" H 3915 2955 50  0000 L CNN
F 2 "Capacitor_SMD:C_0603_1608Metric_Pad1.08x0.95mm_HandSolder" H 3838 2850 50  0001 C CNN
F 3 "~" H 3800 3000 50  0001 C CNN
	1    3800 3000
	1    0    0    -1  
$EndComp
$Comp
L power:GND #PWR0154
U 1 1 60EBCC23
P 3800 3150
F 0 "#PWR0154" H 3800 2900 50  0001 C CNN
F 1 "GND" H 3805 2977 50  0000 C CNN
F 2 "" H 3800 3150 50  0001 C CNN
F 3 "" H 3800 3150 50  0001 C CNN
	1    3800 3150
	1    0    0    -1  
$EndComp
Connection ~ 3800 2850
Wire Wire Line
	3800 2850 4350 2850
Text Label 4100 2850 0    50   ~ 0
EN
Text Label 5550 3150 0    50   ~ 0
RXD
Text Label 5550 2950 0    50   ~ 0
TXD
Wire Wire Line
	1100 4250 1700 4250
Wire Wire Line
	1450 4050 1450 3950
$Comp
L power:GND #PWR0155
U 1 1 60AC6609
P 5800 3450
F 0 "#PWR0155" H 5800 3200 50  0001 C CNN
F 1 "GND" H 5805 3277 50  0000 C CNN
F 2 "" H 5800 3450 50  0001 C CNN
F 3 "" H 5800 3450 50  0001 C CNN
	1    5800 3450
	1    0    0    -1  
$EndComp
Wire Wire Line
	5800 3450 5550 3450
$Comp
L Device:R R16
U 1 1 60AE4582
P 6450 5500
F 0 "R16" H 6520 5546 50  0000 L CNN
F 1 "33R" H 6520 5455 50  0000 L CNN
F 2 "Resistor_SMD:R_0603_1608Metric_Pad0.98x0.95mm_HandSolder" V 6380 5500 50  0001 C CNN
F 3 "~" H 6450 5500 50  0001 C CNN
	1    6450 5500
	1    0    0    -1  
$EndComp
$Comp
L Device:R R17
U 1 1 60B0108E
P 6700 2050
F 0 "R17" H 6770 2096 50  0000 L CNN
F 1 "10K" H 6770 2005 50  0000 L CNN
F 2 "Resistor_SMD:R_0603_1608Metric_Pad0.98x0.95mm_HandSolder" V 6630 2050 50  0001 C CNN
F 3 "~" H 6700 2050 50  0001 C CNN
	1    6700 2050
	-1   0    0    1   
$EndComp
$Comp
L power:+3.3V #PWR0156
U 1 1 60B01BE9
P 6700 2200
F 0 "#PWR0156" H 6700 2050 50  0001 C CNN
F 1 "+3.3V" H 6715 2373 50  0000 C CNN
F 2 "" H 6700 2200 50  0001 C CNN
F 3 "" H 6700 2200 50  0001 C CNN
	1    6700 2200
	-1   0    0    1   
$EndComp
Connection ~ 6700 1900
$Comp
L Transistor_BJT:BC847 Q2
U 1 1 60E56CE5
P 6900 1900
F 0 "Q2" H 7091 1946 50  0000 L CNN
F 1 "BC847" H 7091 1855 50  0000 L CNN
F 2 "Package_TO_SOT_SMD:SOT-23" H 7100 1825 50  0001 L CIN
F 3 "https://www.onsemi.com/pub/Collateral/BC848-D.pdf" H 6900 1900 50  0001 L CNN
	1    6900 1900
	1    0    0    1   
$EndComp
$Comp
L power:GND #PWR0157
U 1 1 60B57D1D
P 1650 3350
F 0 "#PWR0157" H 1650 3100 50  0001 C CNN
F 1 "GND" H 1655 3177 50  0000 C CNN
F 2 "" H 1650 3350 50  0001 C CNN
F 3 "" H 1650 3350 50  0001 C CNN
	1    1650 3350
	1    0    0    -1  
$EndComp
$EndSCHEMATC
